STAT 302, Lecture Slides 2
…
---
## Using R to tidy data

```
## # A tibble: 180 × 3
##    religion income             frequency
##    <chr>    <chr>                  <dbl>
##  1 Agnostic <$10k                     27
##  2 Agnostic $10-20k                   34
##  3 Agnostic $20-30k                   60
##  4 Agnostic $30-40k                   81
##  5 Agnostic $40-50k                   76
##  6 Agnostic $50-75k                  137
##  7 Agnostic $75-100k                 122
##  8 Agnostic $100-150k                109
##  9 Agnostic >150k                     84
## 10 Agnostic Don't know/refused        96
## # … with 170 more rows
```
…
